pays_fr;Uruguay
Finlande;0.6451612903225806
Albanie;0.5645161290322581
Algérie;0.8064516129032258
États-Unis;0.24193548387096775
Andorre;0.6451612903225806
Angola;0.8064516129032258
Royaume-Uni;0.5645161290322581
Antigua-et-Barbuda;0.7903225806451613
Argentine;0.7419354838709677
Arménie;0.6451612903225806
Pays-Bas;0.6451612903225806
Australie;0.6774193548387096
Autriche;0.6774193548387096
Azerbaïdjan;0.7419354838709677
Bahamas;0.7903225806451613
Bahreïn;0.8709677419354839
Bangladesh;0.8064516129032258
Barbade;0.8387096774193549
Biélorussie;0.7741935483870968
Belgique;0.6451612903225806
Bélize;0.7741935483870968
Bénin;0.8387096774193549
Bhoutan;0.532258064516129
Afghanistan;0.532258064516129
Bolivie;0.8709677419354839
Bosnie-Herzégovine;0.016129032258064516
Botswana;0.8548387096774194
Norvège;0.6451612903225806
Brésil;0.9193548387096774
Brunei;0.8709677419354839
Bulgarie;0.6451612903225806
Burkina;0.7580645161290323
Burundi;0.5645161290322581
Cambodge;0.016129032258064516
Cameroun;0.7258064516129032
Canada;0.6451612903225806
Cap-Vert;0.8225806451612904
Centrafrique;0.7096774193548387
Tchad;0.8387096774193549
Chili;0.8548387096774194
Chine;0.6774193548387096
Colombie;0.8225806451612904
Comores;0.532258064516129
Congo;0.5
Congo (République démocratique du);
Costa Rica;0.7096774193548387
Côte d'Ivoire;0.8064516129032258
Croatie;0.6290322580645161
Cuba;0.6774193548387096
Chypre;0.7096774193548387
Tchèque (République);0.6612903225806451
Danemark;0.6612903225806451
Djibouti;0.8225806451612904
Dominique;0.03225806451612903
Dominicaine (République);0.5483870967741935
Équateur;0.8064516129032258
Égypte;0.8548387096774194
Salvador;0.7258064516129032
Guinée équatoriale;0.8225806451612904
Érythrée;0.7903225806451613
Estonie;0.6129032258064516
Éthiopie;0.8064516129032258
Fidji;0.7258064516129032
France;0.5645161290322581
Gabon;0.6935483870967742
Gambie;0.8225806451612904
Géorgie;0.6774193548387096
Allemagne;0.6451612903225806
Ghana;0.8064516129032258
Grèce;0.6612903225806451
Grenade;0.7096774193548387
Guatémala;0.7580645161290323
Guinée;0.8225806451612904
Guinée-Bissao;0.8064516129032258
Guyana;0.8225806451612904
Haïti;0.8225806451612904
Honduras;0.5161290322580645
Hongrie;0.6451612903225806
Islande;0.6290322580645161
Inde;0.6612903225806451
Indonésie;0.8709677419354839
Iran;0.7741935483870968
Irak;0.016129032258064516
Irlande;0.6935483870967742
Israël;0.1935483870967742
Italie;0.6612903225806451
Jamaïque;0.8387096774193549
Japon;0.6935483870967742
Jordanie;0.8225806451612904
Kazakhstan;0.7258064516129032
Kenya;0.8225806451612904
Kiribati;
Corée du Nord;0.6129032258064516
Corée du Sud;0.6451612903225806
Koweït;0.8709677419354839
Kirghizstan;0.6935483870967742
Laos;0.6935483870967742
Lettonie;0.6129032258064516
Liban;0.7580645161290323
Lesotho;0.5161290322580645
Libéria;
Libye;0.8064516129032258
Liechtenstein;0.6451612903225806
Lituanie;0.6290322580645161
Luxembourg;0.6290322580645161
Macédoine (l'Ancienne République yougoslave de);0.6290322580645161
Madagascar;0.6935483870967742
Malawi;0.8225806451612904
Maldives;0.8225806451612904
Mali;0.7903225806451613
Malte;0.7419354838709677
Marshall (îles);0.41935483870967744
Mauritanie;0.8064516129032258
Maurice;0.8064516129032258
Mexique;0.8709677419354839
Micronésie;0.2903225806451613
Moldavie;0.6612903225806451
Monaco;0.5806451612903226
Mongolie;0.7903225806451613
Monténégro;
Maroc;0.8225806451612904
Mozambique;0.7741935483870968
Birmanie;0.7903225806451613
Malaisie;0.8548387096774194
Namibie;0.7903225806451613
Nauru;
Népal;0.8548387096774194
Nouvelle-Zélande;0.7096774193548387
Nicaragua;0.7258064516129032
Niger;0.8387096774193549
Nigéria;0.8387096774193549
Oman;0.8387096774193549
Pakistan;0.7419354838709677
Palaos;0.016129032258064516
Panama;0.9032258064516129
Papouasie-Nouvelle-Guinée;0.7580645161290323
Paraguay;0.8870967741935484
Pérou;0.8548387096774194
Philippines;0.8548387096774194
Pologne;0.6612903225806451
Portugal;0.6612903225806451
Qatar;0.8548387096774194
Roumanie;0.6451612903225806
Russie;0.5967741935483871
Rwanda;0.12903225806451613
Saint-Christophe-et-Niévès;0.5967741935483871
Sainte-Lucie;0.8387096774193549
Saint-Vincent-et-les-Grenadines;0.3548387096774194
Samoa;0.7903225806451613
Saint-Marin;0.6935483870967742
Sao Tomé-et-Principe;0.016129032258064516
Arabie Saoudite;0.8225806451612904
Sénégal;0.8709677419354839
Serbie;
Seychelles;0.5967741935483871
Sierra Leone;0.7580645161290323
Singapour;0.8225806451612904
Slovaquie;0.6612903225806451
Slovénie;0.6612903225806451
Salomon (îles);0.6774193548387096
Somalie;0.016129032258064516
Afrique du Sud;0.8709677419354839
Espagne;0.6612903225806451
Sri Lanka;0.8225806451612904
Soudan;0.8548387096774194
Suriname;0.8548387096774194
Swaziland;0.7903225806451613
Suède;0.6935483870967742
Suisse;
Syrie;0.6774193548387096
Tadjikistan;0.4838709677419355
Tanzanie;0.8064516129032258
Thaïlande;0.8548387096774194
Togo;0.8709677419354839
Tonga;
Trinité-et-Tobago;0.7419354838709677
Tunisie;0.8387096774193549
Turquie;0.6612903225806451
Turkménistan;0.2903225806451613
Tuvalu;
Ouganda;0.41935483870967744
Ukraine;0.7580645161290323
Émirats arabes unis;0.8548387096774194
Uruguay;
Ouzbékistan;0.3709677419354839
Vanuatu;0.8548387096774194
Vénézuéla;0.8548387096774194
Vietnam;0.6935483870967742
Yémen;0.7903225806451613
Zambie;0.6774193548387096
Zimbabwe;0.7741935483870968
