pays_fr;Uruguay
Finlande;0.6842105263157895
Albanie;0.6578947368421053
Algérie;0.868421052631579
États-Unis;0.10526315789473684
Andorre;0.631578947368421
Angola;0.8552631578947368
Royaume-Uni;0.5921052631578947
Antigua-et-Barbuda;0.8947368421052632
Argentine;0.8947368421052632
Arménie;0.7368421052631579
Pays-Bas;0.6842105263157895
Australie;0.5394736842105263
Autriche;0.6973684210526315
Azerbaïdjan;0.8289473684210527
Bahamas;0.8421052631578947
Bahreïn;0.8026315789473685
Bangladesh;0.868421052631579
Barbade;0.881578947368421
Biélorussie;0.7631578947368421
Belgique;0.6710526315789473
Bélize;0.7631578947368421
Bénin;0.8289473684210527
Bhoutan;0.8026315789473685
Afghanistan;0.868421052631579
Bolivie;0.9210526315789473
Bosnie-Herzégovine;0.6447368421052632
Botswana;0.881578947368421
Norvège;0.7236842105263158
Brésil;0.9078947368421053
Brunei;0.8421052631578947
Bulgarie;0.6710526315789473
Burkina;0.8552631578947368
Burundi;0.8552631578947368
Cambodge;0.8552631578947368
Cameroun;0.6842105263157895
Canada;0.5131578947368421
Cap-Vert;0.7894736842105263
Centrafrique;0.42105263157894735
Tchad;0.2631578947368421
Chili;0.8947368421052632
Chine;0.7763157894736842
Colombie;0.8947368421052632
Comores;0.7894736842105263
Congo;0.9078947368421053
Congo (République démocratique du);0.2631578947368421
Costa Rica;0.9736842105263158
Côte d'Ivoire;0.7763157894736842
Croatie;0.6447368421052632
Cuba;0.7894736842105263
Chypre;0.7236842105263158
Tchèque (République);0.6447368421052632
Danemark;0.6710526315789473
Djibouti;0.8289473684210527
Dominique;0.8026315789473685
Dominicaine (République);0.9342105263157895
Équateur;0.9078947368421053
Égypte;0.8026315789473685
Salvador;0.8552631578947368
Guinée équatoriale;0.3684210526315789
Érythrée;0.881578947368421
Estonie;0.6447368421052632
Éthiopie;0.881578947368421
Fidji;0.5657894736842105
France;0.5657894736842105
Gabon;0.5394736842105263
Gambie;0.25
Géorgie;0.6578947368421053
Allemagne;0.6842105263157895
Ghana;0.9210526315789473
Grèce;0.6710526315789473
Grenade;0.868421052631579
Guatémala;0.9210526315789473
Guinée;0.8157894736842105
Guinée-Bissao;0.8289473684210527
Guyana;0.868421052631579
Haïti;0.8421052631578947
Honduras;0.9210526315789473
Hongrie;0.6447368421052632
Islande;0.7236842105263158
Inde;0.75
Indonésie;0.8289473684210527
Iran;0.75
Irak;0.8026315789473685
Irlande;0.6973684210526315
Israël;0.23684210526315788
Italie;0.6842105263157895
Jamaïque;0.9078947368421053
Japon;0.7368421052631579
Jordanie;0.868421052631579
Kazakhstan;0.868421052631579
Kenya;0.8947368421052632
Kiribati;0.039473684210526314
Corée du Nord;0.7368421052631579
Corée du Sud;0.6710526315789473
Koweït;0.8157894736842105
Kirghizstan;0.8157894736842105
Laos;0.7894736842105263
Lettonie;0.6447368421052632
Liban;0.8289473684210527
Lesotho;0.8552631578947368
Libéria;0.8421052631578947
Libye;0.7763157894736842
Liechtenstein;0.7236842105263158
Lituanie;0.6447368421052632
Luxembourg;0.6710526315789473
Macédoine (l'Ancienne République yougoslave de);0.6710526315789473
Madagascar;0.8026315789473685
Malawi;0.8026315789473685
Maldives;0.8947368421052632
Mali;0.881578947368421
Malte;0.7105263157894737
Marshall (îles);0.42105263157894735
Mauritanie;0.8421052631578947
Maurice;0.9078947368421053
Mexique;0.9342105263157895
Micronésie;0.34210526315789475
Moldavie;0.6578947368421053
Monaco;0.618421052631579
Mongolie;0.9078947368421053
Monténégro;0.6842105263157895
Maroc;0.881578947368421
Mozambique;0.9078947368421053
Birmanie;0.7894736842105263
Malaisie;0.8157894736842105
Namibie;0.881578947368421
Nauru;0.47368421052631576
Népal;0.9078947368421053
Nouvelle-Zélande;0.7236842105263158
Nicaragua;0.8947368421052632
Niger;0.7763157894736842
Nigéria;0.8026315789473685
Oman;0.8026315789473685
Pakistan;0.7631578947368421
Palaos;0.3026315789473684
Panama;0.9473684210526315
Papouasie-Nouvelle-Guinée;0.8157894736842105
Paraguay;0.9473684210526315
Pérou;0.8947368421052632
Philippines;0.9078947368421053
Pologne;0.6447368421052632
Portugal;0.6710526315789473
Qatar;0.8026315789473685
Roumanie;0.6710526315789473
Russie;0.6710526315789473
Rwanda;0.631578947368421
Saint-Christophe-et-Niévès;0.11842105263157894
Sainte-Lucie;0.8289473684210527
Saint-Vincent-et-les-Grenadines;0.8026315789473685
Samoa;0.8289473684210527
Saint-Marin;0.6842105263157895
Sao Tomé-et-Principe;0.7631578947368421
Arabie Saoudite;0.8026315789473685
Sénégal;0.8421052631578947
Serbie;0.6447368421052632
Seychelles;0.02631578947368421
Sierra Leone;0.17105263157894737
Singapour;0.8552631578947368
Slovaquie;0.6578947368421053
Slovénie;0.6710526315789473
Salomon (îles);0.868421052631579
Somalie;0.3026315789473684
Afrique du Sud;0.881578947368421
Espagne;0.6842105263157895
Sri Lanka;0.8947368421052632
Soudan;0.8157894736842105
Suriname;0.8157894736842105
Swaziland;0.868421052631579
Suède;0.6710526315789473
Suisse;0.6973684210526315
Syrie;0.7631578947368421
Tadjikistan;0.8157894736842105
Tanzanie;0.7894736842105263
Thaïlande;0.8552631578947368
Timor oriental;0.9078947368421053
Togo;0.8947368421052632
Tonga;0.5526315789473685
Trinité-et-Tobago;0.8421052631578947
Tunisie;0.8552631578947368
Turquie;0.6447368421052632
Turkménistan;0.618421052631579
Tuvalu;0.6973684210526315
Ouganda;0.8157894736842105
Ukraine;0.6447368421052632
Émirats arabes unis;0.8026315789473685
Uruguay;
Ouzbékistan;0.7631578947368421
Vanuatu;0.5789473684210527
Vénézuéla;0.8289473684210527
Vietnam;0.7894736842105263
Yémen;0.7894736842105263
Zambie;0.8947368421052632
Zimbabwe;0.8289473684210527
