pays_fr;Uruguay
Finlande;0.6699029126213593
Albanie;0.33980582524271846
Algérie;0.7087378640776699
États-Unis;0.23300970873786409
Andorre;
Angola;0.6019417475728155
Royaume-Uni;0.2815533980582524
Antigua-et-Barbuda;
Argentine;0.8252427184466019
Arménie;
Pays-Bas;0.4854368932038835
Australie;0.4854368932038835
Autriche;0.5825242718446602
Azerbaïdjan;
Bahamas;0.7766990291262136
Bahreïn;0.8058252427184466
Bangladesh;0.8349514563106796
Barbade;0.8446601941747572
Biélorussie;0.5631067961165048
Belgique;0.39805825242718446
Bélize;
Bénin;0.7281553398058253
Bhoutan;0.7475728155339806
Afghanistan;0.5922330097087378
Bolivie;0.8543689320388349
Bosnie-Herzégovine;
Botswana;0.4077669902912621
Norvège;0.5533980582524272
Brésil;0.8155339805825242
Brunei;
Bulgarie;0.5631067961165048
Burkina;0.6796116504854369
Burundi;0.8155339805825242
Cambodge;0.6601941747572816
Cameroun;0.8252427184466019
Canada;0.4077669902912621
Cap-Vert;0.6310679611650486
Centrafrique;0.6893203883495146
Tchad;0.5728155339805825
Chili;0.7864077669902912
Chine;0.6990291262135923
Colombie;0.7281553398058253
Comores;0.6699029126213593
Congo;0.6796116504854369
Congo (République démocratique du);0.7669902912621359
Costa Rica;0.8058252427184466
Côte d'Ivoire;0.6796116504854369
Croatie;
Cuba;0.6310679611650486
Chypre;0.7378640776699029
Tchèque (République);
Danemark;0.5242718446601942
Djibouti;0.6504854368932039
Dominique;0.02912621359223301
Dominicaine (République);0.7184466019417476
Équateur;0.8446601941747572
Égypte;0.8349514563106796
Salvador;0.7184466019417476
Guinée équatoriale;0.5242718446601942
Érythrée;
Estonie;
Éthiopie;0.7669902912621359
Fidji;0.7864077669902912
France;0.30097087378640774
Gabon;0.7087378640776699
Gambie;0.7864077669902912
Géorgie;
Allemagne;
Ghana;0.7184466019417476
Grèce;0.5631067961165048
Grenade;0.6213592233009708
Guatémala;0.5048543689320388
Guinée;0.7378640776699029
Guinée-Bissao;0.5145631067961165
Guyana;0.7766990291262136
Haïti;0.5048543689320388
Honduras;0.8058252427184466
Hongrie;0.5631067961165048
Islande;0.5145631067961165
Inde;0.7572815533980582
Indonésie;0.8252427184466019
Iran;0.7475728155339806
Irak;0.6699029126213593
Irlande;0.5631067961165048
Israël;0.30097087378640774
Italie;0.4174757281553398
Jamaïque;0.7669902912621359
Japon;0.5436893203883495
Jordanie;0.7766990291262136
Kazakhstan;
Kenya;0.7572815533980582
Kiribati;
Corée du Nord;
Corée du Sud;
Koweït;0.7961165048543689
Kirghizstan;
Laos;0.5728155339805825
Lettonie;
Liban;0.7378640776699029
Lesotho;0.8349514563106796
Libéria;0.7281553398058253
Libye;0.7281553398058253
Liechtenstein;
Lituanie;
Luxembourg;0.3883495145631068
Macédoine (l'Ancienne République yougoslave de);
Madagascar;0.7766990291262136
Malawi;0.4854368932038835
Maldives;0.8155339805825242
Mali;0.7864077669902912
Malte;0.8252427184466019
Marshall (îles);
Mauritanie;0.8058252427184466
Maurice;0.7087378640776699
Mexique;0.8349514563106796
Micronésie;
Moldavie;
Monaco;
Mongolie;0.5631067961165048
Monténégro;
Maroc;0.7961165048543689
Mozambique;0.6699029126213593
Birmanie;0.7572815533980582
Malaisie;0.8155339805825242
Namibie;
Nauru;
Népal;0.8252427184466019
Nouvelle-Zélande;0.5436893203883495
Nicaragua;0.7087378640776699
Niger;0.7766990291262136
Nigéria;0.8058252427184466
Oman;0.8252427184466019
Pakistan;0.8252427184466019
Palaos;
Panama;0.8349514563106796
Papouasie-Nouvelle-Guinée;0.7184466019417476
Paraguay;0.5242718446601942
Pérou;0.8349514563106796
Philippines;0.8640776699029126
Pologne;0.5825242718446602
Portugal;0.5048543689320388
Qatar;0.8252427184466019
Roumanie;0.7281553398058253
Russie;0.5631067961165048
Rwanda;0.7961165048543689
Saint-Christophe-et-Niévès;
Sainte-Lucie;0.6019417475728155
Saint-Vincent-et-les-Grenadines;0.02912621359223301
Samoa;0.7281553398058253
Saint-Marin;
Sao Tomé-et-Principe;0.7087378640776699
Arabie Saoudite;0.8155339805825242
Sénégal;0.8058252427184466
Serbie;0.7961165048543689
Seychelles;0.3883495145631068
Sierra Leone;0.8252427184466019
Singapour;0.7864077669902912
Slovaquie;
Slovénie;
Salomon (îles);0.04854368932038835
Somalie;0.7669902912621359
Afrique du Sud;0.02912621359223301
Espagne;0.6699029126213593
Sri Lanka;0.7572815533980582
Soudan;0.8155339805825242
Suriname;0.8058252427184466
Swaziland;0.8058252427184466
Suède;0.6116504854368932
Suisse;
Syrie;0.7281553398058253
Tadjikistan;
Tanzanie;0.7961165048543689
Thaïlande;0.8155339805825242
Togo;0.7766990291262136
Tonga;
Trinité-et-Tobago;0.8252427184466019
Tunisie;0.8155339805825242
Turquie;0.7087378640776699
Turkménistan;
Tuvalu;
Ouganda;0.6990291262135923
Ukraine;0.5631067961165048
Émirats arabes unis;0.7766990291262136
Uruguay;
Ouzbékistan;
Vanuatu;
Vénézuéla;0.8543689320388349
Vietnam;0.6019417475728155
Yémen;
Zambie;0.8252427184466019
Zimbabwe;0.6796116504854369
